…
    # A tibble: 1 × 2
      name        height
      <chr>        <int>
    1 Yarael Poof    264

6\. Найти всех персонажей ниже 170.

``` r
starwars%>% select(name, height) %>% filter(height < 170)
```

    # A tibble: 22 × 2
       name                  height
       <chr>                  <int>
     1 C-3PO                    167
     2 R2-D2                     96
     3 Leia Organa              150
     4 Beru Whitesun Lars       165
     5 R5-D4                     97
     6 Yoda                      66
     7 Mon Mothma               150
     8 Wicket Systri Warrick     88
     9 Nien Nunb                160
    10 Watto                    137
    # ℹ 12 more rows

7\. Подсчитать ИМТ (индекс массы тела) для всех персонажей по формуле.

``` r
starwars %>% mutate(res = round(mass/(height^2),5)) %>% select(name, res)
```

    # A tibble: 87 × 2
       name                   res
       <chr>                <dbl>
     1 Luke Skywalker     0.0026 
     2 C-3PO              0.00269
     3 R2-D2              0.00347
     4 Darth Vader        0.00333
     5 Leia Organa        0.00218
     6 Owen Lars          0.00379
     7 Beru Whitesun Lars 0.00275
     8 R5-D4              0.0034 
     9 Biggs Darklighter  0.00251
    10 Obi-Wan Kenobi     0.00232
    # ℹ 77 more rows
…
    # A tibble: 1 × 2
      eye_color count
      <chr>     <int>
    1 brown        21

11\. Подсчитать среднюю длину имени в каждой расе вселенной Звездных
войн.

``` r
starwars %>% filter(!is.na(species)) %>% group_by(species) %>% summarise(mean_len = mean(nchar(name))) %>% select(species, mean_len)
```

    # A tibble: 37 × 2
       species   mean_len
       <chr>        <dbl>
     1 Aleena       12   
     2 Besalisk     15   
     3 Cerean       12   
     4 Chagrian     10   
     5 Clawdite     10   
     6 Droid         4.83
     7 Dug           7   
     8 Ewok         21   
     9 Geonosian    17   
    10 Gungan       11.7 
    # ℹ 27 more rows
…
